date,12_29_2016,
0,8,0.9
0,10,0.9
0,12,0.9
0,14,0.9
0,16,0.5
0,18,0.5
0,20,0.4
1,8,0.8
1,10,0.4
1,12,0.4
1,14,0.4
1,16,0.9
1,18,0.8
1,20,0.4
2,8,0.8
2,10,0.4
2,12,0.4
2,14,0.7
2,16,0.7
2,18,0.3
2,20,0.5
3,8,0.5
3,10,0.5
3,12,0.5
3,14,0.9
3,16,0.8
3,18,0.9
3,20,0.5
